{
  "project_info": {
    "project_number": "423596499743",
    "firebase_url": "https://vmccncandroidproject.firebaseio.com",
    "project_id": "vmccncandroidproject",
    "storage_bucket": "vmccncandroidproject.appspot.com"
  },
  "client": [
    {
      "client_info": {
        "mobilesdk_app_id": "1:423596499743:android:9f245c4ca7c31ef4ccc62a",
        "android_client_info": {
          "package_name": "com.akordirect.vmccnc"
        }
      },
      "oauth_client": [
        {
          "client_id": "423596499743-er047vn6ks2h95mqn9j52cok2i1duav3.apps.googleusercontent.com",
          "client_type": 1,
          "android_info": {
            "package_name": "com.akordirect.vmccnc",
            "certificate_hash": "2cd8c34a3bf1ff2aa5301876b2d19d81d5816a3a"
          }
        },
        {
          "client_id": "423596499743-tpett6u8frojrblpr5u6kjpasriamjgg.apps.googleusercontent.com",
          "client_type": 1,
          "android_info": {
            "package_name": "com.akordirect.vmccnc",
            "certificate_hash": "2e4180198ce0a3a3cbd35f5817b7aee9cc649e9f"
          }
        },
        {
          "client_id": "423596499743-89djof2njn8jsc8j9fng1idbsjv4bjuj.apps.googleusercontent.com",
          "client_type": 3
        }
      ],
      "api_key": [
        {
          "current_key": "AIzaSyA3XF1F7NiaBX_8FyN7HN8wL3PuE4oIxxU"
        }
      ],
      "services": {
        "appinvite_service": {
          "other_platform_oauth_client": [
            {
              "client_id": "423596499743-89djof2njn8jsc8j9fng1idbsjv4bjuj.apps.googleusercontent.com",
              "client_type": 3
            }
          ]
        }
      }
    }
  ],
  "configuration_version": "1"
}